crcnew2.vcd
$date
	Mon Aug 05 15:30:18 2024
$end
$version
	Icarus Verilog
$end
$timescale
	1ns
$end
$scope module crc_tb $end
$var wire 1 ! poly_in_ready $end
$var wire 1 " outvalid $end
$var wire 5 # out [4:0] $end
$var wire 1 $ data_in_ready $end
$var reg 1 % clk $end
$var reg 32 & data_in [31:0] $end
$var reg 1 ' data_in_valid $end
$var reg 3 ( i [2:0] $end
$var reg 1 ) outready $end
$var reg 6 * poly [5:0] $end
$var reg 1 + poly_in_valid $end
$var reg 1 , reset $end
$scope module seq $end
$var wire 1 % clk $end
$var wire 32 - data_in [31:0] $end
$var wire 1 ' data_in_valid $end
$var wire 1 ) outready $end
$var wire 6 . poly [5:0] $end
$var wire 1 + poly_in_valid $end
$var wire 1 , reset $end
$var wire 1 / t1 $end
$var wire 1 0 t10 $end
$var wire 1 1 t12 $end
$var wire 1 2 t13 $end
$var wire 1 3 t14 $end
$var wire 1 4 t15 $end
$var wire 1 5 t16 $end
$var wire 1 6 t17 $end
$var wire 1 7 t18 $end
$var wire 1 8 t19 $end
$var wire 1 9 t2 $end
$var wire 1 : t20 $end
$var wire 1 ; t21 $end
$var wire 1 < t22 $end
$var wire 1 = t23 $end
$var wire 1 > t4 $end
$var wire 1 ? t6 $end
$var wire 1 @ t8 $end
$var wire 1 A t9 $end
$var wire 1 B t7 $end
$var wire 1 C t5 $end
$var wire 1 D t3 $end
$var wire 1 E t11 $end
$var wire 5 F out [4:0] $end
$var reg 1 G data_flag $end
$var reg 1 $ data_in_ready $end
$var reg 32 H dbuf [31:0] $end
$var reg 1 I din0 $end
$var reg 1 J din1 $end
$var reg 1 K dreset $end
$var reg 6 L gbuf [5:0] $end
$var reg 6 M i [5:0] $end
$var reg 3 N next [2:0] $end
$var reg 5 O obuf [4:0] $end
$var reg 1 " outvalid $end
$var reg 1 P poly_flag $end
$var reg 1 ! poly_in_ready $end
$var reg 3 Q state [2:0] $end
$var reg 5 R temp [4:0] $end
$scope module x0 $end
$var wire 1 % clk $end
$var wire 1 9 in $end
$var wire 1 K reset $end
$var reg 1 D out $end
$upscope $end
$scope module x1 $end
$var wire 1 % clk $end
$var wire 1 > in $end
$var wire 1 K reset $end
$var reg 1 C out $end
$upscope $end
$scope module x2 $end
$var wire 1 % clk $end
$var wire 1 ? in $end
$var wire 1 K reset $end
$var reg 1 B out $end
$upscope $end
$scope module x3 $end
$var wire 1 % clk $end
$var wire 1 @ in $end
$var wire 1 K reset $end
$var reg 1 A out $end
$upscope $end
$scope module x4 $end
$var wire 1 % clk $end
$var wire 1 0 in $end
$var wire 1 K reset $end
$var reg 1 E out $end
$upscope $end
$upscope $end
$upscope $end
$enddefinitions $end
#0
$dumpvars
bx R
b0 Q
xP
bx O
bx N
bx M
bx L
xK
xJ
xI
bx H
xG
bx F
xE
xD
xC
xB
xA
x@
x?
x>
x=
x<
x;
x:
x9
x8
x7
x6
x5
x4
x3
x2
x1
x0
x/
b100001 .
b10111011101110111101110111011101 -
0,
x+
b100001 *
0)
b0 (
x'
b10111011101110111101110111011101 &
0%
x$
bx #
x"
x!
$end
#5
1%
#10
0%
#12
1,
#15
b0 Q
1%
#20
0%
#22
b0x N
1G
b10111011101110111101110111011101 H
1!
1$
0"
1K
1'
#25
0D
0C
0B
0A
0E
b0 Q
1%
#30
0%
#32
0?
0@
00
0:
0;
0<
0=
01
02
03
04
05
06
07
08
b1 N
1P
b100001 L
1)
1+
#35
b10 N
0!
0$
0P
0G
b1 Q
b0 M
1%
#40
0%
#45
1>
09
1/
0K
b10 Q
0J
1I
b1 M
1%
#50
0%
#55
1@
19
1;
1J
b10 M
1C
1%
#60
0%
#65
1?
1:
1=
19
1D
1A
0J
b11 M
1%
#70
0%
#75
10
09
1<
1J
b100 M
1B
1%
#80
0%
#85
0?
0>
0:
0/
19
0D
1E
0J
b101 M
1%
#90
0%
#95
00
0@
1?
09
0<
0;
1:
1J
b110 M
0B
0C
1D
1%
#100
0%
#105
0?
10
1>
0:
1<
0=
1/
09
0D
1B
0A
0E
0J
b111 M
1%
#110
0%
#115
0>
00
1@
19
0/
0<
1;
1J
b1000 M
1E
0B
1C
1%
#120
0%
#125
1?
0@
09
1>
1:
0;
1=
1/
1D
0C
1A
0E
b1001 M
1%
#130
0%
#135
0>
19
10
1@
0?
0/
0=
1<
1;
0:
0I
b1010 M
0A
1B
1C
0D
1%
#140
0%
#145
1?
0@
00
09
1:
0;
0<
1=
1D
0C
0B
1A
1E
1I
b1011 M
1%
#150
0%
#155
19
10
0?
0=
1<
0:
0I
b1100 M
0E
0A
1B
0D
1%
#160
0%
#165
1?
00
1:
0<
1D
0B
1E
1I
b1101 M
1%
#170
0%
#175
10
1<
0I
b1110 M
0E
1B
1%
#180
0%
#185
1E
1I
b1111 M
1%
#190
0%
#195
1>
1/
b11 N
0I
b10000 M
1%
#200
0%
#205
b10111 #
b10111 F
1@
x>
1;
b0 N
b10111 O
1"
b10111 R
x9
x/
1C
b11 Q
xJ
xI
1%
#210
0%
#215
x@
bx #
bx F
x?
1=
x;
b1 N
1P
1G
1!
1$
bx O
0"
1K
x:
b0 Q
1A
xC
xD
1%
#220
0%
#225
0?
0@
00
0:
0;
0<
0=
b10 N
0!
0$
0P
0G
0D
0C
0B
0A
0E
b1 Q
b0 M
1%
#228
0)
b11011101110111011011101110111011 &
b11011101110111011011101110111011 -
0,
b1 (
#230
0%
#235
b1 N
1P
1G
b11011101110111011011101110111011 H
1!
1$
b0 Q
1%
#240
0%
1,
#245
1>
b10 N
0!
0$
0P
0G
19
1/
b1 Q
1J
1I
1%
#250
0%
#255
0K
b10 Q
b1 M
1%
#260
0%
1)
#265
1?
1@
0>
1:
1;
0/
1D
1C
0I
b10 M
1%
#270
0%
#275
1>
09
10
0@
1/
1=
1<
0;
1I
b11 M
1A
1B
0C
1%
#280
0%
#285
0?
1@
19
0:
1;
0=
0D
1C
0A
1E
0I
b100 M
1%
#290
0%
#295
0>
09
00
1?
0/
1=
0<
1:
1I
b101 M
1A
0B
1D
1%
#300
0%
#305
0?
0@
10
0:
0;
1<
0D
0C
1B
0E
0I
b110 M
1%
#310
0%
#315
19
00
0=
0<
1I
b111 M
1E
0A
0B
1%
#320
0%
#325
1?
1:
1D
0E
0I
b1000 M
1%
#330
0%
#335
1>
10
09
1/
1<
0J
1I
b1001 M
1B
1%
#340
0%
#345
0?
1@
0>
0:
1;
0/
19
0D
1C
1E
1J
b1010 M
1%
#350
0%
#355
00
0@
1?
1=
0<
0;
1:
0J
b1011 M
1A
0B
0C
1D
1%
#360
0%
#365
10
1>
1<
0=
1/
19
1B
0A
0E
1J
b1100 M
1%
#370
0%
#375
0>
1@
09
0/
1;
0J
b1101 M
1E
1C
1%
#380
0%
#385
0?
0@
0:
0;
1=
09
0D
0C
1A
1J
b1110 M
1%
#390
0%
#395
00
0=
0<
0J
b1111 M
0A
0B
1%
#400
0%
#405
1>
1/
19
b11 N
0E
1J
b10000 M
1%
#410
0%
#415
b11 #
b11 F
x>
1@
1?
x9
x/
1;
b0 N
b11 O
1"
b11 R
1:
b11 Q
xJ
xI
1C
1D
1%
#420
0%
#425
x?
x@
10
bx #
bx F
x:
x;
1<
1=
b1 N
1P
1G
1!
1$
bx O
0"
1K
xD
xC
1B
1A
b0 Q
1%
#430
0%
#435
00
0@
0?
0=
0<
0;
b10 N
0!
0$
0P
0G
0:
b1 Q
b0 M
0A
0B
0C
0D
1%
#438
0)
b110011 *
b110011 .
0,
b10 (
#440
0%
#445
x?
x:
x=
x0
x1
x4
x5
x8
b1 N
1P
b110011 L
1G
1!
1$
b0 Q
1%
#450
0%
1,
#455
00
1>
08
05
09
1?
1=
1:
14
11
b10 N
0!
0$
0P
0G
1/
b1 Q
1J
1I
1%
#460
0%
#465
0K
b10 Q
b1 M
1%
#470
0%
1)
#475
18
15
19
0?
0=
0:
1>
04
01
00
1@
0/
1<
1;
0I
b10 M
1B
1C
1%
#480
0%
#485
18
15
0?
10
19
0>
14
11
0:
0<
0=
1/
1D
0B
1A
1I
b11 M
1%
#490
0%
#495
0@
0;
0I
b100 M
1E
0C
1%
#500
0%
#505
10
1?
18
15
1:
19
1>
04
01
0=
0/
0A
1I
b101 M
1%
#510
0%
#515
08
05
09
0?
1=
0:
1>
14
11
10
1@
1/
1<
1;
0I
b110 M
1B
1C
1%
#520
0%
#525
08
05
0?
00
09
0>
04
01
0:
0<
1=
0/
0D
0B
1A
1I
b111 M
1%
#530
0%
#535
0@
0;
0I
b1000 M
0E
0C
1%
#540
0%
#545
1?
10
1:
18
15
0>
14
11
1=
19
1/
0A
0J
1I
b1001 M
1%
#550
0%
#555
0=
18
15
1>
04
01
00
1?
19
0/
1<
1:
1J
b1010 M
1E
1B
1D
1%
#560
0%
#565
0>
0?
1=
0:
00
1@
14
11
18
15
1;
1/
19
1C
0E
0J
b1011 M
1%
#570
0%
#575
10
0@
0=
0<
0;
1J
b1100 M
1A
0B
0C
1%
#580
0%
#585
0>
1?
1:
00
04
01
08
05
0=
0/
09
0A
1E
0J
b1101 M
1%
#590
0%
#595
1=
08
05
1>
14
11
10
1?
09
1/
1<
1:
1J
b1110 M
0E
1B
0D
1%
#600
0%
#605
0>
0?
0=
0:
10
1@
04
01
08
05
1;
0/
09
1C
1E
0J
b1111 M
1%
#610
0%
#615
00
0@
1=
0<
b11 N
0;
1J
b10000 M
1A
0B
0C
1%
#620
0%
#625
x?
b0 #
b0 F
x0
x:
x8
x5
x>
x4
x1
x=
b0 N
b0 O
1"
b0 R
x9
x/
0A
0E
b11 Q
xJ
xI
1%
#630
0%
#635
x@
bx #
bx F
x<
x;
b1 N
1P
1G
1!
1$
bx O
0"
1K
b0 Q
xE
xB
xC
xD
1%
#640
0%
#645
0@
0;
0<
b10 N
0!
0$
0P
0G
0D
0C
0B
0E
b1 Q
b0 M
1%
#648
0)
b111011 *
b111011 .
b11011101110110101101101111001010 &
b11011101110110101101101111001010 -
0,
b11 (
#650
0%
#655
x<
x@
x3
x7
b1 N
1P
b111011 L
1G
b11011101110110101101101111001010 H
1!
1$
b0 Q
1%
#660
0%
1,
#665
10
0@
1>
08
07
05
09
1?
1=
1<
1:
14
13
11
b10 N
0!
0$
0P
0G
1/
b1 Q
1J
1I
1%
#670
0%
#675
0K
b10 Q
b1 M
1%
#680
0%
1)
#685
1@
00
1;
0<
1C
1B
1E
0I
b10 M
1%
#690
0%
#695
10
0@
0>
18
17
15
19
0=
1I
b11 M
0E
1A
1%
#700
0%
#705
00
1>
08
07
05
0?
0@
09
0:
0;
1=
1D
0C
0A
1E
0I
b100 M
1%
#710
0%
#715
10
1@
1?
1<
1;
1:
1I
b101 M
0E
0B
1C
0D
1%
#720
0%
#725
0@
0>
18
17
15
10
19
0<
0=
1B
1A
1E
0I
b110 M
1%
#730
0%
#735
08
07
05
09
10
1<
0>
04
03
01
0@
1?
0/
0=
0;
1:
0J
1I
b111 M
0A
0C
1D
1%
#740
0%
#745
0?
0:
0D
b1000 M
1%
#750
0%
#755
1@
1>
18
17
15
10
19
0<
1J
b1001 M
0B
1%
#760
0%
#765
00
18
17
15
1<
0?
0@
19
0>
14
13
11
0:
1;
0=
1/
1D
1C
1A
0I
b1010 M
1%
#770
0%
#775
1@
1=
0;
0J
1I
b1011 M
0E
0A
0C
1%
#780
0%
#785
00
1@
0>
18
17
15
0=
19
1A
1J
b1100 M
1%
#790
0%
#795
b1101 M
1%
#800
0%
#805
10
1?
1@
1=
0<
1:
18
17
15
1>
04
03
01
19
0/
0J
0I
b1110 M
1%
#810
0%
#815
00
0@
1<
1;
1I
b1111 M
1E
1B
1C
1%
#820
0%
#825
10
0@
0?
18
17
15
0<
0:
19
0>
14
13
11
1=
1/
b11 N
0A
0E
b10000 M
1%
#830
0%
#835
x?
x=
x:
b10001 #
b10001 F
x8
x7
x5
x>
x4
x3
x1
x0
x@
x9
x/
x<
b0 N
b10001 O
1"
b10001 R
0;
b11 Q
xJ
xI
1E
0B
0C
1%
#840
0%
#845
bx #
bx F
x;
b1 N
1P
1G
1!
1$
bx O
0"
1K
xD
xC
xB
xA
xE
b0 Q
1%
#850
0%
#855
0;
b10 N
0!
0$
0P
0G
b1 Q
b0 M
0E
0A
0B
0C
0D
1%
#858
b100 (
#860
0%
#865
10
0@
1>
08
07
05
09
1?
1=
1<
1:
14
13
11
1/
0K
b10 Q
1J
1I
b1 M
1%
